^D:\ZDU.EDU\АЛГОРИТМИ ТА СТРУКТУРИ ДАНИХ\LAB_4\ASTD_LAB_4\ASTD_LAB_4\MAIN.CPP
/c /ZI /JMC /nologo /W3 /WX- /diagnostics:column /sdl /Od /D _DEBUG /D _CONSOLE /D _UNICODE /D UNICODE /Gm- /EHsc /RTC1 /MDd /GS /fp:precise /Zc:wchar_t /Zc:forScope /Zc:inline /permissive- /Fo"X64\DEBUG\\" /Fd"X64\DEBUG\VC143.PDB" /external:W3 /Gd /TP /FC D:\ZDU.EDU\АЛГОРИТМИ ТА СТРУКТУРИ ДАНИХ\LAB_4\ASTD_LAB_4\ASTD_LAB_4\MAIN.CPP
^D:\ZDU.EDU\АЛГОРИТМИ ТА СТРУКТУРИ ДАНИХ\LAB_4\ASTD_LAB_4\TASK_1_AND_2\MAIN.CPP
/c /ZI /JMC /nologo /W3 /WX- /diagnostics:column /sdl /Od /D _DEBUG /D _CONSOLE /D _UNICODE /D UNICODE /Gm- /EHsc /RTC1 /MDd /GS /fp:precise /Zc:wchar_t /Zc:forScope /Zc:inline /permissive- /Fo"X64\DEBUG\\" /Fd"X64\DEBUG\VC143.PDB" /external:W3 /Gd /TP /FC D:\ZDU.EDU\АЛГОРИТМИ ТА СТРУКТУРИ ДАНИХ\LAB_4\ASTD_LAB_4\TASK_1_AND_2\MAIN.CPP
