^D:\ZDU.EDU\АЛГОРИТМИ ТА СТРУКТУРИ ДАНИХ\LAB_4\ASTD_LAB_4\TASK_1_AND_2\X64\DEBUG\MAIN.OBJ
D:\ZDU.EDU\Алгоритми та структури даних\LAB_4\ASTD_LAB_4\X64\DEBUG\TASK_1_AND_2.EXE
D:\ZDU.EDU\Алгоритми та структури даних\LAB_4\ASTD_LAB_4\TASK_1_AND_2\X64\DEBUG\TASK_1_AND_2.ILK
D:\ZDU.EDU\Алгоритми та структури даних\LAB_4\ASTD_LAB_4\X64\DEBUG\TASK_1_AND_2.PDB
