^D:\ZDU.EDU\АЛГОРИТМИ ТА СТРУКТУРИ ДАНИХ\LAB_4\ASTD_LAB_4\TASK_3\MAIN.CPP
D:\ZDU.EDU\Алгоритми та структури даних\LAB_4\ASTD_LAB_4\TASK_3\X64\DEBUG\VC143.PDB
D:\ZDU.EDU\Алгоритми та структури даних\LAB_4\ASTD_LAB_4\TASK_3\X64\DEBUG\VC143.IDB
D:\ZDU.EDU\Алгоритми та структури даних\LAB_4\ASTD_LAB_4\TASK_3\X64\DEBUG\MAIN.OBJ
